<?xml version="1.0" encoding="UTF-8" standalone="no"?>
<!-- Created with Inkscape (http://www.inkscape.org/) -->

<svg
  style='position: absolute'
   xmlns:dc="http://purl.org/dc/elements/1.1/"
   xmlns:cc="http://creativecommons.org/ns#"
   xmlns:rdf="http://www.w3.org/1999/02/22-rdf-syntax-ns#"
   xmlns:svg="http://www.w3.org/2000/svg"
   xmlns="http://www.w3.org/2000/svg"
   xmlns:sodipodi="http://sodipodi.sourceforge.net/DTD/sodipodi-0.dtd"
   xmlns:inkscape="http://www.inkscape.org/namespaces/inkscape"
   id="svg3409"
   x="0"
   y="0"
   width="297mm"
   height="210mm"
   viewBox="0 0 1052.3622 744.09448"
   version="1.1"
   inkscape:version="0.91 r13725"
   sodipodi:docname="inkscape_homepage_version.svg">
  <defs
     id="defs3411" />
  <sodipodi:namedview
     id="base"
     pagecolor="#ffffff"
     bordercolor="#666666"
     borderopacity="1.0"
     inkscape:pageopacity="0.0"
     inkscape:pageshadow="2"
     inkscape:zoom="0.35"
     inkscape:cx="279.61755"
     inkscape:cy="520"
     inkscape:document-units="px"
     inkscape:current-layer="layer1"
     showgrid="false"
     inkscape:window-width="1280"
     inkscape:window-height="671"
     inkscape:window-x="72"
     inkscape:window-y="0"
     inkscape:window-maximized="0" />
  <metadata
     id="metadata3414">
    <rdf:RDF>
      <cc:Work
         rdf:about="">
        <dc:format>image/svg+xml</dc:format>
        <dc:type
           rdf:resource="http://purl.org/dc/dcmitype/StillImage" />
        <dc:title></dc:title>
      </cc:Work>
    </rdf:RDF>
  </metadata>
  <g
     inkscape:label="Layer 1"
     inkscape:groupmode="layer"
     id="layer1"
     transform="translate(0,-308.26772)" />

    <svg preserveAspectRatio='none' viewBox='0 0 100 100'>
      <!-- M -->
      <path class='m' d="M 50 49 L 1 49 L 1 40 L 38 46.5 L 1 38 L 1 28 L 50 49"      fill='none' stroke='grey' stroke-width="0.1"></path>
      <!-- END M -->

      <!-- A -->
      <path class='a1' d="M 50 49 L 1 24 L 1 7.5 L 50 49"                             fill='none' stroke='grey' stroke-width="0.1"></path>
      <path class='a1' d="M 25 36.5 L 25 28"                                          fill='none' stroke='grey' stroke-width="0.1"></path>
      <!-- END A -->

      <!-- R -->
      <path class='r' d="M 50 49 L 1 3 L 1 1 L 15 1 L 29 20 L 27 25 L 31 23 L 50 49" fill='none' stroke='grey' stroke-width="0.1"></path>
      <!-- END R -->

      <!-- T -->
      <path class='t' d="M 50 49 L 26 1"                                             fill='none' stroke='grey' stroke-width="0.1"></path>
      <path class='t' d="M 17 1 L 35 1"                                              fill='none' stroke='grey' stroke-width="0.1"></path>
      <!-- END T -->

      <!-- I -->
      <path class='i' d="M 50 49 L 37 1"                                             fill='none' stroke='grey' stroke-width="0.1"></path>
      <!-- END I -->

      <!-- A -->
      <path class='a2' d="M 50 49 L 41 1 L 50 1 L 50 49"                              fill='none' stroke='grey' stroke-width="0.1"></path>
      <path class='a2' d="M 45.5 25 L 50 25"                                          fill='none' stroke='grey' stroke-width="0.1"></path>
      <!-- END A -->

      <!-- N -->
      <path class='n' d="M 50 49 L 52 1 L 53 1 L 53 35"                              fill='none' stroke='grey' stroke-width="0.1"></path>
      <path class='n' d="M 50 49 L 60 1"                                             fill='none' stroke='grey' stroke-width="0.1"></path>
      <!-- END N -->

      <!-- W -->
      <path class='w' d="M 50 49 L 64 1"                                             fill='none' stroke='grey' stroke-width="0.1"></path>
      <path class='w' d="M 50 49 L 61 26"                                            fill='none' stroke='grey' stroke-width="0.1"></path>
      <path class='w' d="M 50 49 L 84 1"                                             fill='none' stroke='grey' stroke-width="0.1"></path>
      <!-- END W -->

      <!-- E -->
      <path class='e' d="M 50 49 L 90 1 L 99 1 L 99 10"                               fill='none' stroke='grey' stroke-width="0.1"></path>
      <path class='e' d="M 70 25 L 74 29"                                             fill='none' stroke='grey' stroke-width="0.1"></path>
      <path class='e' d="M 50 49 L 57 43"                                             fill='none' stroke='grey' stroke-width="0.1"></path>
      <!-- END E -->

      <!-- B -->
      <path class='b' d="M 50 49 L 99 16 L 99 28 L 97 32 L 80 39 L 77 37 L 75 32 L 75 38 L 74 41 L 50 49"                                             fill='none' stroke='grey' stroke-width="0.1"></path>
      <!-- END B -->

      <!-- S -->
      <path class='s' d="M 50 49 L 75 49 L 75 43 L 99 33 L 99 49"                                             fill='none' stroke='grey' stroke-width="0.1"></path>
      <!-- END S -->
      <!-- <path d="M 42 49 l -41 0 l 0 -15 l 40 12 l -40 -16 l 0 -15 l 41 29" fill='none' stroke='black' stroke-width="0.3"></path> -->
    </svg>

    <svg viewBox='0 0 100 100'>
      <circle stroke='black' stroke-width='0.1' cx="50" cy="50" fill="white" r='12%'></circle>
      <circle cx="50" cy="50" fill="darkred" r='11%'></circle>
      <rect width='100%' height='100%' x="0" y="49.2" fill="white"></rect>
    </svg>

    <svg preserveAspectRatio='none' viewBox='0 0 100 100'>
      <path d="M 50 50 l 50 0 l 0 15"     fill='darkred' stroke-width="0.1"></path>
      <path d="M 50 50 l 50 25 l 0 20"    fill='darkred' stroke-width="0.1"></path>

      <path d="M 50 50 L 90 100 L 75 100"  fill='darkred' stroke-width="0.1"></path>
      <path d="M 50 50 L 65 100 L 53 100"  fill='darkred' stroke-width="0.1"></path>
      <path d="M 50 50 L 42 100 L 30 100" fill='darkred' stroke-width="0.1"></path>
      <path d="M 50 50 L 22 100 L 9 100" fill='darkred' stroke-width="0.1"></path>

      <path d="M 50 50 L 0 75 l 0 20"  fill='darkred' stroke-width="0.1"></path>
      <path d="M 50 50 L 0 50 l 0 15"   fill='darkred' stroke-width="0.1"></path>
    </svg>
</svg>
